Tools for Text Analytics • bitTA
…
library(dplyr)

president_speech %>%
  select(title, doc) %>% 
  filter(row_number() <= 2) %>%
  unnest_noun_ngrams(
    noun_bigram,
    doc,
    n = 2,
    ngram_delim = ":",
    type = "noun2"
  )
#> # A tibble: 271 × 2
#>    title                              noun_bigram
#>    <chr>                              <chr>      
#>  1 "2005 한일 우정의 해 개막식 축사 " 일:우정    
#>  2 "2005 한일 우정의 해 개막식 축사 " 우정:해    
#>  3 "2005 한일 우정의 해 개막식 축사 " 해:개막식  
#>  4 "2005 한일 우정의 해 개막식 축사 " 개막식:축하
#>  5 "2005 한일 우정의 해 개막식 축사 " 축하:행사  
#>  6 "2005 한일 우정의 해 개막식 축사 " 행사:축하  
#>  7 "2005 한일 우정의 해 개막식 축사 " 축하:참석  
#>  8 "2005 한일 우정의 해 개막식 축사 " 참석:여러분
#>  9 "2005 한일 우정의 해 개막식 축사 " 여러분:모두
#> 10 "2005 한일 우정의 해 개막식 축사 " 모두:환영  
#> # … with 261 more rows
…
